1_{"types":[],"alpha":[{"letter":"#","items":23},{"letter":"a","items":327},{"letter":"b","items":448},{"letter":"c","items":166},{"letter":"d","items":230},{"letter":"e","items":117},{"letter":"f","items":79},{"letter":"g","items":213},{"letter":"h","items":55},{"letter":"i","items":105},{"letter":"j","items":37},{"letter":"k","items":39},{"letter":"l","items":77},{"letter":"m","items":278},{"letter":"n","items":21},{"letter":"o","items":103},{"letter":"p","items":152},{"letter":"q","items":0},{"letter":"r","items":283},{"letter":"s","items":407},{"letter":"t","items":197},{"letter":"u","items":50},{"letter":"v","items":41},{"letter":"w","items":122},{"letter":"x","items":4},{"letter":"y","items":31},{"letter":"z","items":52}]}

//0_{"types":[],"alpha":[{"letter":"#","items":0},{"letter":"a","items":63},{"letter":"b","items":80},{"letter":"c","items":78},{"letter":"d","items":52},{"letter":"e","items":14},{"letter":"f","items":25},{"letter":"g","items":43},{"letter":"h","items":20},{"letter":"i","items":19},{"letter":"j","items":2},{"letter":"k","items":10},{"letter":"l","items":21},{"letter":"m","items":39},{"letter":"n","items":6},{"letter":"o","items":25},{"letter":"p","items":89},{"letter":"q","items":0},{"letter":"r","items":42},{"letter":"s","items":106},{"letter":"t","items":28},{"letter":"u","items":1},{"letter":"v","items":22},{"letter":"w","items":19},{"letter":"x","items":0},{"letter":"y","items":2},{"letter":"z","items":8}]}
//1_{"types":[],"alpha":[{"letter":"#","items":0},{"letter":"a","items":6},{"letter":"b","items":10},{"letter":"c","items":7},{"letter":"d","items":4},{"letter":"e","items":0},{"letter":"f","items":0},{"letter":"g","items":1},{"letter":"h","items":2},{"letter":"i","items":5},{"letter":"j","items":0},{"letter":"k","items":1},{"letter":"l","items":1},{"letter":"m","items":10},{"letter":"n","items":0},{"letter":"o","items":25},{"letter":"p","items":0},{"letter":"q","items":0},{"letter":"r","items":6},{"letter":"s","items":5},{"letter":"t","items":2},{"letter":"u","items":0},{"letter":"v","items":1},{"letter":"w","items":1},{"letter":"x","items":0},{"letter":"y","items":0},{"letter":"z","items":0}]}
//2_{"types":[],"alpha":[{"letter":"#","items":0},{"letter":"a","items":4},{"letter":"b","items":4},{"letter":"c","items":0},{"letter":"d","items":4},{"letter":"e","items":0},{"letter":"f","items":0},{"letter":"g","items":1},{"letter":"h","items":0},{"letter":"i","items":3},{"letter":"j","items":0},{"letter":"k","items":0},{"letter":"l","items":1},{"letter":"m","items":3},{"letter":"n","items":0},{"letter":"o","items":0},{"letter":"p","items":0},{"letter":"q","items":0},{"letter":"r","items":3},{"letter":"s","items":5},{"letter":"t","items":0},{"letter":"u","items":1},{"letter":"v","items":0},{"letter":"w","items":1},{"letter":"x","items":0},{"letter":"y","items":0},{"letter":"z","items":1}]}